<svg xmlns="http://www.w3.org/2000/svg" xmlns:xlink="http://www.w3.org/1999/xlink" width="94.556" height="49.621" viewBox="0 0 94.556 49.621">
  <defs>
    <linearGradient id="linear-gradient" x1="-0.028" y1="0.527" x2="2.88" y2="0.415" gradientUnits="objectBoundingBox">
      <stop offset="0" stop-color="#009540"/>
      <stop offset="1" stop-color="#93c01f"/>
    </linearGradient>
  </defs>
  <path id="Path_136" data-name="Path 136" d="M178.543,67.594a15.911,15.911,0,0,0-7.684,1.971L159.629,53.43h.923a1.715,1.715,0,0,0,0-3.43H149.227a1.715,1.715,0,1,0,0,3.43h6.1l-13.363,19.2-8.068-11.593h.649a1.715,1.715,0,0,0,0-3.43H123.216a1.715,1.715,0,1,0,0,3.43h6.278l-5.835,8.384c-.021.03-.034.063-.053.094a16.152,16.152,0,1,0,2.805,1.939c.02-.026.044-.047.063-.074l5.219-7.5,13.432,19.3a1.715,1.715,0,0,0,2.387.428h0a1.715,1.715,0,0,0,.428-2.388l-3.89-5.589,13.426-19.29,10.577,15.2a15.988,15.988,0,1,0,10.49-3.944ZM128.6,83.608a12.583,12.583,0,1,1-12.583-12.584A12.6,12.6,0,0,1,128.6,83.608Zm49.946,12.583a12.583,12.583,0,1,1,12.583-12.583A12.6,12.6,0,0,1,178.543,96.191Z" transform="translate(-100 -50)" fill="url(#linear-gradient)"/>
</svg>
