[
  [
    16.938343048095703,
    52.41100611274838
  ],
  [
    16.935253143310547,
    52.39917204338193
  ],
  [
    16.931476593017578,
    52.39026821763578
  ],
  [
    16.925296783447266,
    52.391420578633365
  ],
  [
    16.927013397216797,
    52.39959100269022
  ],
  [
    16.914653778076172,
    52.41320501479144
  ],
  [
    16.92117691040039,
    52.414147367821286
  ],
  [
    16.938858032226562,
    52.41707900403444
  ],
  [
    16.939716339111328,
    52.41173909227721
  ],
  [
    16.938343048095703,
    52.41100611274838
  ]
]